{
	"info": {
		"_postman_id": "d990b382-d405-4c2f-9068-1fd4e6bbbf73",
		"name": "maplink",
		"schema": "https://schema.getpostman.com/json/collection/v2.1.0/collection.json"
	},
	"item": [
		{
			"name": "cliente",
			"item": [
				{
					"name": "listar todos clientes",
					"request": {
						"method": "GET",
						"header": [],
						"url": {
							"raw": "localhost:8080/api/v1/cliente/",
							"host": [
								"localhost"
							],
							"port": "8080",
							"path": [
								"api",
								"v1",
								"cliente",
								""
							]
						}
					},
					"response": []
				},
				{
					"name": "criar cliente",
					"request": {
						"method": "POST",
						"header": [],
						"body": {
							"mode": "raw",
							"raw": "{ \"nome\":\"Rui Carlos Lorenzetti da Silva\",\n\"cpf\":\"28016344439\"\n}",
							"options": {
								"raw": {
									"language": "json"
								}
							}
						},
						"url": {
							"raw": "localhost:8080/api/v1/cliente/",
							"host": [
								"localhost"
							],
							"port": "8080",
							"path": [
								"api",
								"v1",
								"cliente",
								""
							]
						}
					},
					"response": []
				},
				{
					"name": "find one",
					"request": {
						"method": "GET",
						"header": [],
						"url": null
					},
					"response": []
				},
				{
					"name": "Delete cliente",
					"request": {
						"method": "DELETE",
						"header": [],
						"url": {
							"raw": "localhost:8080/api/v1/cliente/1",
							"host": [
								"localhost"
							],
							"port": "8080",
							"path": [
								"api",
								"v1",
								"cliente",
								"1"
							]
						}
					},
					"response": []
				}
			]
		},
		{
			"name": "servico",
			"item": [
				{
					"name": "Listar todos servicos",
					"protocolProfileBehavior": {
						"disableBodyPruning": true
					},
					"request": {
						"method": "GET",
						"header": [],
						"body": {
							"mode": "raw",
							"raw": "",
							"options": {
								"raw": {
									"language": "json"
								}
							}
						},
						"url": {
							"raw": "localhost:8080/api/v1/servico/",
							"host": [
								"localhost"
							],
							"port": "8080",
							"path": [
								"api",
								"v1",
								"servico",
								""
							]
						}
					},
					"response": []
				},
				{
					"name": "criar servico",
					"request": {
						"method": "POST",
						"header": [],
						"body": {
							"mode": "raw",
							"raw": "{\n    \"codigo\": \"pqp\",\n    \"descricao\": \"123456\",\n    \"valor\":13.60\n}",
							"options": {
								"raw": {
									"language": "json"
								}
							}
						},
						"url": {
							"raw": "localhost:8080/api/v1/servico/",
							"host": [
								"localhost"
							],
							"port": "8080",
							"path": [
								"api",
								"v1",
								"servico",
								""
							]
						}
					},
					"response": []
				},
				{
					"name": "find one",
					"request": {
						"method": "GET",
						"header": [],
						"url": {
							"raw": "localhost:8080/api/v1/servico/pqp",
							"host": [
								"localhost"
							],
							"port": "8080",
							"path": [
								"api",
								"v1",
								"servico",
								"pqp"
							]
						}
					},
					"response": []
				},
				{
					"name": "delete",
					"request": {
						"method": "DELETE",
						"header": [],
						"url": {
							"raw": "localhost:8080/api/v1/servico/pqp",
							"host": [
								"localhost"
							],
							"port": "8080",
							"path": [
								"api",
								"v1",
								"servico",
								"pqp"
							]
						}
					},
					"response": []
				}
			]
		},
		{
			"name": "agendamento",
			"item": [
				{
					"name": "listar todos agendamentos",
					"request": {
						"method": "GET",
						"header": [],
						"url": {
							"raw": "localhost:8080/api/v1/agendamento/all/",
							"host": [
								"localhost"
							],
							"port": "8080",
							"path": [
								"api",
								"v1",
								"agendamento",
								"all",
								""
							]
						}
					},
					"response": []
				},
				{
					"name": "criar agendamento",
					"request": {
						"method": "POST",
						"header": [],
						"body": {
							"mode": "raw",
							"raw": "{\n    \"codigoServico\":\"pqp\",\n    \"clienteId\":3,\n     \"observacao\":\"Aqui vai uma observação\",\n    \"dataHoraAgendamento\": \"10.11.2021 13:13:00\"\n}",
							"options": {
								"raw": {
									"language": "json"
								}
							}
						},
						"url": {
							"raw": "localhost:8080/api/v1/agendamento/schedule/",
							"host": [
								"localhost"
							],
							"port": "8080",
							"path": [
								"api",
								"v1",
								"agendamento",
								"schedule",
								""
							]
						}
					},
					"response": []
				},
				{
					"name": "reagendamento",
					"request": {
						"method": "POST",
						"header": [],
						"body": {
							"mode": "raw",
							"raw": "{\"agendamentoId\": 3,\n\"novaDataHora\": \"25.12.2021 13:13:00\"\n}",
							"options": {
								"raw": {
									"language": "json"
								}
							}
						},
						"url": {
							"raw": "localhost:8080/api/v1/agendamento/reschedule/",
							"host": [
								"localhost"
							],
							"port": "8080",
							"path": [
								"api",
								"v1",
								"agendamento",
								"reschedule",
								""
							]
						}
					},
					"response": []
				},
				{
					"name": "Agendamentos agrupados por data e valor(somado)",
					"request": {
						"method": "GET",
						"header": [],
						"url": {
							"raw": "localhost:8080/api/v1/agendamento/grouped/",
							"host": [
								"localhost"
							],
							"port": "8080",
							"path": [
								"api",
								"v1",
								"agendamento",
								"grouped",
								""
							]
						}
					},
					"response": []
				}
			]
		}
	]
}